3.1623e+03 2.4069e-25 3.7225e-20 6.0169e-21 4.4809e-24 1.2046e-20 2.8539e-20 2.1699e-20 4.7562e-23 4.5967e-23 4.0526e-22 7.6453e-22 9.0590e-23 3.2805e-21 5.9668e-22 1.4768e-22 1.6911e-22 1.9250e-22 2.2738e-22 2.6281e-22 2.9968e-22 3.3871e-22 3.7948e-22 4.2227e-22 4.5888e-22 4.8802e-22 5.1662e-23 5.5785e-23 2.4093e-25 
3.5481e+03 2.9326e-25 4.1505e-20 5.8965e-21 5.6230e-24 1.1704e-20 2.8617e-20 2.2085e-20 4.9108e-23 4.8111e-23 7.7175e-22 1.3118e-21 9.4862e-23 4.9327e-21 1.2391e-21 1.5463e-22 1.7734e-22 2.0214e-22 2.3845e-22 2.7554e-22 3.1414e-22 3.5499e-22 3.9771e-22 4.4241e-22 4.8170e-22 5.1363e-22 5.4776e-23 5.9153e-23 3.0078e-25 
3.9811e+03 5.3360e-25 4.6235e-20 5.7951e-21 9.5008e-24 1.1343e-20 2.8570e-20 2.2374e-20 5.0698e-23 5.0350e-23 1.4026e-21 2.1410e-21 9.9375e-23 7.1206e-21 2.4928e-21 1.6188e-22 1.8592e-22 2.1220e-22 2.4998e-22 2.8881e-22 3.2921e-22 3.7197e-22 4.1672e-22 4.6342e-22 5.0552e-22 5.4044e-22 5.8080e-23 6.2725e-23 6.9265e-25 
4.4668e+03 1.6158e-24 5.1275e-20 5.7433e-21 2.1572e-23 1.0993e-20 2.8460e-20 2.2614e-20 5.2333e-23 5.2688e-23 2.4062e-21 3.3184e-21 1.0435e-22 9.9104e-21 4.7136e-21 1.6944e-22 1.9484e-22 2.2267e-22 2.6199e-22 3.0263e-22 3.4492e-22 3.8967e-22 4.3656e-22 4.8535e-22 5.3039e-22 5.6849e-22 6.1587e-23 6.6516e-23 4.0711e-24 
5.0119e+03 5.9203e-24 5.6462e-20 5.7813e-21 5.5055e-23 1.0697e-20 2.8371e-20 2.2868e-20 5.4015e-23 5.5130e-23 3.8929e-21 4.8960e-21 1.1053e-22 1.3352e-20 8.3120e-21 1.7731e-22 2.0413e-22 2.3359e-22 2.7448e-22 3.1702e-22 3.6129e-22 4.0813e-22 4.5724e-22 5.0823e-22 5.5633e-22 5.9783e-22 6.5308e-23 7.0539e-23 3.4379e-23 
5.6234e+03 2.0846e-23 6.1755e-20 5.9569e-21 1.3848e-22 1.0526e-20 2.8409e-20 2.3211e-20 5.5747e-23 5.7679e-23 5.9584e-21 6.9045e-21 1.2020e-22 1.7473e-20 1.3684e-20 1.8553e-22 2.1379e-22 2.4494e-22 2.8748e-22 3.3201e-22 3.7834e-22 4.2737e-22 4.7882e-22 5.3209e-22 5.8339e-22 6.2850e-22 6.9258e-23 7.4807e-23 2.7380e-22 
6.3096e+03 6.6301e-23 6.7130e-20 6.3199e-21 3.2350e-22 1.0590e-20 2.8691e-20 2.3724e-20 5.7532e-23 6.0340e-23 8.6663e-21 9.3510e-21 1.3909e-22 2.2275e-20 2.1118e-20 1.9408e-22 2.2383e-22 2.5676e-22 3.0101e-22 3.4760e-22 3.9610e-22 4.4742e-22 5.0131e-22 5.5698e-22 6.1161e-22 6.6055e-22 7.3450e-23 7.9338e-23 1.7896e-21 
7.0795e+03 1.8930e-22 7.2807e-20 6.9146e-21 6.9366e-22 1.0985e-20 2.9345e-20 2.4487e-20 5.9372e-23 6.3117e-23 1.2035e-20 1.2223e-20 1.7974e-22 2.7726e-20 3.0702e-20 2.0300e-22 2.3426e-22 2.6904e-22 3.1506e-22 3.6384e-22 4.1460e-22 4.6835e-22 5.2476e-22 5.8295e-22 6.4103e-22 6.9403e-22 7.7899e-23 8.4146e-23 8.7416e-21 
7.9433e+03 4.8865e-22 7.9860e-20 7.7705e-21 1.3687e-21 1.1792e-20 3.0489e-20 2.5569e-20 6.1270e-23 6.6016e-23 1.6033e-20 1.5496e-20 2.6604e-22 3.3764e-20 4.2245e-20 2.1229e-22 2.4510e-22 2.8180e-22 3.2968e-22 3.8074e-22 4.3386e-22 4.9026e-22 5.4921e-22 6.1002e-22 6.7169e-22 7.2898e-22 8.2622e-23 8.9249e-23 2.8122e-20 
8.9125e+03 1.1513e-21 8.8630e-20 8.8953e-21 2.5006e-21 1.3105e-20 3.2221e-20 2.7020e-20 6.3231e-23 6.9042e-23 2.0577e-20 1.9142e-20 4.3798e-22 4.0298e-20 5.5250e-20 2.2197e-22 2.5635e-22 2.9506e-22 3.4486e-22 3.9837e-22 4.5390e-22 5.1350e-22 5.7468e-22 6.3825e-22 7.0363e-22 7.6546e-22 8.7636e-23 9.4666e-23 5.6310e-20 
1.0000e+04 2.4999e-21 1.0031e-19 1.0271e-20 4.2585e-21 1.5021e-20 3.4608e-20 2.8839e-20 6.5256e-23 7.2199e-23 2.5540e-20 2.3138e-20 7.5513e-22 4.7216e-20 6.8921e-20 2.3206e-22 2.6804e-22 3.0882e-22 3.6066e-22 4.1688e-22 4.7477e-22 5.3894e-22 6.0123e-22 6.6768e-22 7.3692e-22 8.0351e-22 9.2959e-23 1.0042e-22 8.2453e-20 
1.1220e+04 5.0464e-21 1.1737e-19 1.1853e-20 6.8047e-21 1.7570e-20 3.7674e-20 3.0978e-20 6.7349e-23 7.5493e-23 3.0768e-20 2.7468e-20 1.2969e-21 5.4401e-20 8.2228e-20 2.4256e-22 2.8016e-22 3.2310e-22 3.7713e-22 4.3668e-22 4.9648e-22 5.6869e-22 6.2891e-22 6.9836e-22 7.7158e-22 8.4319e-22 9.8609e-23 1.0652e-22 1.0717e-19 
1.2589e+04 9.5460e-21 1.4097e-19 1.3580e-20 1.0337e-20 2.0739e-20 4.1404e-20 3.3553e-20 6.9513e-23 7.8930e-23 3.6090e-20 3.2119e-20 2.1583e-21 6.1733e-20 9.3998e-20 2.5350e-22 2.9274e-22 3.3791e-22 3.9450e-22 4.5870e-22 5.1908e-22 6.0706e-22 6.5781e-22 7.3035e-22 8.0767e-22 8.8454e-22 1.0461e-22 1.1300e-22 1.3436e-19 
1.4125e+04 1.7040e-20 1.7297e-19 1.5381e-20 1.4929e-20 2.4498e-20 4.5739e-20 3.6536e-20 7.1753e-23 8.2515e-23 4.1335e-20 3.7076e-20 3.4423e-21 6.9104e-20 1.0302e-19 2.6489e-22 3.0578e-22 3.5326e-22 4.1330e-22 4.8489e-22 5.4262e-22 6.6185e-22 6.8813e-22 7.6368e-22 8.4525e-22 9.2763e-22 1.1098e-22 1.1988e-22 1.6620e-19 
1.5849e+04 2.8877e-20 2.1503e-19 1.7190e-20 2.0568e-20 2.8781e-20 5.0588e-20 3.9880e-20 7.4072e-23 8.6253e-23 4.6345e-20 4.2317e-20 5.2483e-21 7.6417e-20 1.0815e-19 2.7675e-22 3.1931e-22 3.6917e-22 4.3480e-22 5.1883e-22 5.6724e-22 7.4561e-22 7.2041e-22 7.9842e-22 8.8436e-22 9.7249e-22 1.1774e-22 1.2719e-22 1.9776e-19 
1.7783e+04 4.6710e-20 2.6842e-19 1.8964e-20 2.7156e-20 3.3459e-20 5.5836e-20 4.3525e-20 7.6474e-23 9.0151e-23 5.0984e-20 4.7802e-20 7.6603e-21 8.3590e-20 1.0841e-19 2.8909e-22 3.3333e-22 3.8564e-22 4.6151e-22 5.6638e-22 5.9331e-22 8.7632e-22 7.5584e-22 8.3461e-22 9.2506e-22 1.0192e-21 1.2493e-22 1.3495e-22 2.0872e-19 
1.9953e+04 7.2446e-20 3.3319e-19 2.0710e-20 3.4508e-20 3.8369e-20 6.1350e-20 4.7405e-20 7.8963e-23 9.4216e-23 5.5140e-20 5.3477e-20 1.0736e-20 9.0549e-20 1.0305e-19 3.0198e-22 3.4786e-22 4.0270e-22 4.9784e-22 6.3605e-22 6.2171e-22 1.0773e-21 7.9691e-22 8.7232e-22 9.6741e-22 1.0678e-21 1.3256e-22 1.4318e-22 1.7680e-19 
2.2387e+04 1.0817e-19 4.0643e-19 2.2499e-20 4.2522e-20 4.3420e-20 6.6993e-20 5.1452e-20 8.1543e-23 9.8453e-23 5.8736e-20 5.9267e-20 1.4499e-20 9.7228e-20 1.0161e-19 3.1561e-22 3.6296e-22 4.2034e-22 5.5060e-22 7.3901e-22 6.5444e-22 1.3759e-21 8.4813e-22 9.1160e-22 1.0115e-21 1.1183e-21 1.4066e-22 1.5193e-22 1.2312e-19 
2.5119e+04 1.5603e-19 4.8675e-19 2.4496e-20 5.0838e-20 4.8437e-20 7.2626e-20 5.5453e-20 8.4220e-23 1.0287e-22 6.1720e-20 6.5083e-20 1.8931e-20 1.0356e-19 1.0712e-19 3.3076e-22 3.7886e-22 4.3860e-22 6.2906e-22 8.8842e-22 6.9543e-22 1.8009e-21 9.1668e-22 9.5252e-22 1.0573e-21 1.1709e-21 1.4927e-22 1.6123e-22 8.3064e-20 
2.8184e+04 2.1809e-19 5.7200e-19 2.6969e-20 5.9171e-20 5.3326e-20 7.8066e-20 5.8789e-20 8.6998e-23 1.0747e-22 6.4070e-20 7.0822e-20 2.3975e-20 1.0950e-19 1.1106e-19 3.5024e-22 3.9665e-22 4.5748e-22 7.4440e-22 1.0984e-21 7.5150e-22 2.3798e-21 1.0127e-21 9.9513e-22 1.1049e-21 1.2255e-21 1.5841e-22 1.7110e-22 6.1759e-20 
3.1623e+04 2.9620e-19 6.5980e-19 3.0297e-20 6.7288e-20 5.8016e-20 8.3135e-20 6.1822e-20 8.9900e-23 1.1229e-22 6.5788e-20 7.6596e-20 2.9537e-20 1.1498e-19 1.1341e-19 3.8265e-22 4.2063e-22 4.7699e-22 9.0847e-22 1.3827e-21 8.3325e-22 3.1346e-21 1.1490e-21 1.0395e-21 1.1545e-21 1.2823e-21 1.6813e-22 1.8159e-22 5.2744e-20 
3.5481e+04 3.9182e-19 7.4779e-19 3.4966e-20 7.5074e-20 6.2364e-20 8.7691e-20 6.4498e-20 9.3020e-23 1.1746e-22 6.6895e-20 8.2526e-20 3.5499e-20 1.1995e-19 1.1420e-19 4.5065e-22 4.6487e-22 4.9715e-22 1.1320e-21 1.7534e-21 9.5538e-22 4.0791e-21 1.3399e-21 1.0857e-21 1.2060e-21 1.3412e-21 1.7845e-22 1.9273e-22 5.1594e-20 
3.9811e+04 5.0593e-19 8.3389e-19 4.1550e-20 8.2470e-20 6.6338e-20 9.1625e-20 6.6784e-20 9.6809e-23 1.2364e-22 6.7433e-20 8.8118e-20 4.1733e-20 1.2438e-19 1.1356e-19 6.0723e-22 5.6807e-22 5.1798e-22 1.4228e-21 2.2196e-21 1.1363e-21 5.2163e-21 1.5991e-21 1.1338e-21 1.2596e-21 1.4024e-21 1.8942e-22 2.0456e-22 5.7114e-20 
4.4668e+04 6.3895e-19 9.1642e-19 5.0700e-20 8.9547e-20 6.9983e-20 9.4660e-20 6.8667e-20 1.0305e-22 1.3375e-22 6.7464e-20 9.3297e-20 4.8137e-20 1.2830e-19 1.1168e-19 9.6399e-22 8.2107e-22 5.3950e-22 1.7842e-21 2.7868e-21 1.3966e-21 6.5370e-21 1.9383e-21 1.1841e-21 1.3158e-21 1.4659e-21 2.0107e-22 2.1714e-22 6.8888e-20 
5.0119e+04 7.9062e-19 9.9418e-19 6.3130e-20 9.6565e-20 7.3322e-20 9.6910e-20 7.0066e-20 1.1778e-22 1.5802e-22 6.7074e-20 9.8048e-20 5.4668e-20 1.3178e-19 1.0940e-19 1.7350e-21 1.4080e-21 5.6171e-22 2.2140e-21 3.4558e-21 1.7572e-21 8.0203e-21 2.3647e-21 1.2369e-21 1.3757e-21 1.5318e-21 2.1345e-22 2.3051e-22 8.3965e-20 
5.6234e+04 9.6008e-19 1.0665e-18 7.9617e-20 1.0392e-19 7.6439e-20 9.8688e-20 7.0688e-20 1.5852e-22 2.2699e-22 6.6387e-20 1.0246e-19 6.1388e-20 1.3504e-19 1.0967e-19 3.2971e-21 2.6547e-21 5.8464e-22 2.7043e-21 4.2228e-21 2.2365e-21 9.6357e-21 2.8802e-21 1.2933e-21 1.4423e-21 1.6001e-21 2.2662e-22 2.4471e-22 9.8253e-20 
6.3096e+04 1.1458e-18 1.1330e-18 1.0100e-19 1.1199e-19 7.9429e-20 1.0036e-19 7.1010e-20 2.8543e-22 4.1863e-22 6.5583e-20 1.0676e-19 6.8519e-20 1.3846e-19 1.1028e-19 6.2576e-21 5.0692e-21 6.0832e-22 3.2426e-21 5.0784e-21 2.8484e-21 1.1345e-20 3.4811e-21 1.3551e-21 1.5226e-21 1.6710e-21 2.4061e-22 2.5981e-22 1.1020e-19 
7.0795e+04 1.3459e-18 1.1940e-18 1.2822e-19 1.2161e-19 8.2533e-20 1.0238e-19 7.1256e-20 5.8746e-22 9.0612e-22 6.4930e-20 1.1140e-19 7.6502e-20 1.4261e-19 1.1208e-19 1.1513e-20 9.3537e-21 6.3274e-22 3.8126e-21 6.0086e-21 3.6001e-21 1.3109e-20 4.1594e-21 1.4264e-21 1.6316e-21 1.7444e-21 2.5548e-22 2.7586e-22 1.2016e-19 
7.9433e+04 1.5578e-18 1.2497e-18 1.6230e-19 1.3369e-19 8.6177e-20 1.0563e-19 7.1777e-20 1.2737e-21 2.0292e-21 6.4835e-20 1.1668e-19 8.6065e-20 1.4837e-19 1.1622e-19 2.0265e-20 1.6370e-20 6.5795e-22 4.3958e-21 6.9948e-21 4.4917e-21 1.4886e-20 4.9051e-21 1.5143e-21 1.7971e-21 1.8205e-21 2.7129e-22 2.9292e-22 1.2803e-19 
8.9125e+04 1.7786e-18 1.3009e-18 2.0435e-19 1.4929e-19 9.0831e-20 1.1118e-19 7.3129e-20 2.7384e-21 4.4362e-21 6.5925e-20 1.2396e-19 9.8300e-20 1.5688e-19 1.2405e-19 3.3977e-20 2.7057e-20 6.8396e-22 4.9736e-21 8.0151e-21 5.5157e-21 1.6642e-20 5.7091e-21 1.6308e-21 2.0657e-21 1.8994e-21 2.8810e-22 3.1106e-22 1.3331e-19 
1.0000e+05 2.0054e-18 1.3481e-18 2.5562e-19 1.6968e-19 9.7198e-20 1.2082e-19 7.6213e-20 5.6484e-21 9.1504e-21 6.9145e-20 1.3479e-19 1.1473e-19 1.6953e-19 1.3691e-19 5.4245e-20 4.2306e-20 7.1079e-22 5.5281e-21 9.0459e-21 6.6600e-21 1.8353e-20 6.5681e-21 1.7968e-21 2.5081e-21 1.9811e-21 3.0598e-22 3.3034e-22 1.3664e-19 
1.1220e+05 2.2351e-18 1.3920e-18 3.1740e-19 1.9586e-19 1.0607e-19 1.3659e-19 8.2706e-20 1.1119e-20 1.7660e-20 7.5853e-20 1.5018e-19 1.3736e-19 1.8787e-19 1.5670e-19 8.2603e-20 6.2827e-20 7.3848e-22 6.0440e-21 1.0064e-20 7.9115e-21 2.0005e-20 7.4901e-21 2.0475e-21 3.2211e-21 2.0656e-21 3.2499e-22 3.5085e-22 1.4059e-19 
1.2589e+05 2.4644e-18 1.4335e-18 3.9099e-19 2.2997e-19 1.1847e-19 1.6127e-19 9.4353e-20 2.0682e-20 3.1941e-20 8.7880e-20 1.7255e-19 1.6857e-19 2.1361e-19 1.8511e-19 1.2030e-19 8.9030e-20 7.6704e-22 6.5092e-21 1.1050e-20 9.2636e-21 2.1608e-20 8.5029e-21 2.4421e-21 4.3244e-21 2.1532e-21 3.4520e-22 3.7265e-22 1.5012e-19 
1.4125e+05 2.6904e-18 1.4730e-18 4.7768e-19 2.7404e-19 1.3565e-19 1.9811e-19 1.1378e-19 3.6311e-20 5.4348e-20 1.0741e-19 2.0361e-19 2.1122e-19 2.4812e-19 2.2349e-19 1.6810e-19 1.2096e-19 7.9650e-22 6.9165e-21 1.1991e-20 1.0727e-20 2.3199e-20 9.6633e-21 3.0742e-21 5.9512e-21 2.2439e-21 3.6671e-22 3.9585e-22 1.7115e-19 
1.5849e+05 2.9103e-18 1.5113e-18 5.7865e-19 3.3030e-19 1.5901e-19 2.5097e-19 1.4425e-19 6.0349e-20 8.7387e-20 1.3687e-19 2.4572e-19 2.6851e-19 2.9212e-19 2.7229e-19 2.2611e-19 1.5826e-19 8.2689e-22 7.2648e-21 1.2893e-20 1.2338e-20 2.4848e-20 1.1067e-20 4.0828e-21 8.2324e-21 2.3377e-21 3.8958e-22 4.2052e-22 2.0885e-19 
1.7783e+05 3.1214e-18 1.5486e-18 6.9490e-19 4.0103e-19 1.9036e-19 3.2382e-19 1.8947e-19 9.5309e-20 1.3460e-19 1.7861e-19 3.0054e-19 3.4224e-19 3.4648e-19 3.3190e-19 2.9377e-19 2.0023e-19 8.5825e-22 7.5625e-21 1.3781e-20 1.4171e-20 2.6668e-20 1.2855e-20 5.6548e-21 1.1278e-20 2.4347e-21 4.1392e-22 4.4676e-22 2.6544e-19 
1.9953e+05 3.3215e-18 1.5856e-18 8.2717e-19 4.8848e-19 2.3139e-19 4.2056e-19 2.5331e-19 1.4370e-19 1.9804e-19 2.3462e-19 3.7021e-19 4.3425e-19 4.1139e-19 4.0161e-19 3.6978e-19 2.4589e-19 8.9061e-22 7.8301e-21 1.4708e-20 1.6336e-20 2.8814e-20 1.5209e-20 8.0180e-21 1.5161e-20 2.5351e-21 4.3981e-22 4.7468e-22 3.3988e-19 
2.2387e+05 3.5087e-18 1.6226e-18 9.7593e-19 5.9472e-19 2.8392e-19 5.4479e-19 3.3932e-19 2.0778e-19 2.7891e-19 3.0597e-19 4.5535e-19 5.4536e-19 4.8547e-19 4.8036e-19 4.5388e-19 2.9403e-19 9.2400e-22 8.1032e-21 1.5762e-20 1.8972e-20 3.1471e-20 1.8343e-20 1.1420e-20 1.9900e-20 2.6390e-21 4.6736e-22 5.0439e-22 4.3010e-19 
2.5119e+05 3.6815e-18 1.6598e-18 1.1413e-18 7.2108e-19 3.4965e-19 6.9897e-19 4.5123e-19 2.8894e-19 3.7749e-19 3.9322e-19 5.5583e-19 6.7512e-19 5.6718e-19 5.6589e-19 5.4285e-19 3.4340e-19 9.5847e-22 8.4338e-21 1.7058e-20 2.2232e-20 3.4835e-20 2.2474e-20 1.6094e-20 2.5456e-20 2.7463e-21 4.9668e-22 5.3600e-22 5.3449e-19 
2.8184e+05 3.8384e-18 1.6974e-18 1.3230e-18 8.6902e-19 4.2988e-19 8.8455e-19 5.9442e-19 3.8815e-19 4.9281e-19 4.9570e-19 6.7040e-19 8.2120e-19 6.5486e-19 6.5531e-19 6.3432e-19 3.9273e-19 9.9404e-22 8.8880e-21 1.8730e-20 2.6254e-20 3.9093e-20 2.7797e-20 2.2226e-20 3.1731e-20 2.8574e-21 5.2788e-22 5.6964e-22 6.5329e-19 
3.1623e+05 3.9787e-18 1.7357e-18 1.5204e-18 1.0400e-18 5.2567e-19 1.1017e-18 7.6711e-19 5.0531e-19 6.2274e-19 6.1122e-19 7.9757e-19 9.8073e-19 7.4657e-19 7.4679e-19 7.2585e-19 4.4081e-19 1.0308e-21 9.5404e-21 2.0912e-20 3.1138e-20 4.4183e-20 3.4194e-20 2.9914e-20 3.8581e-20 2.9722e-21 5.6110e-22 6.0545e-22 7.8262e-19 
3.5481e+05 4.1016e-18 1.7749e-18 1.7323e-18 1.2344e-18 6.3786e-19 1.3492e-18 9.6852e-19 6.3970e-19 7.6418e-19 7.3744e-19 9.3486e-19 1.1503e-18 8.3966e-19 8.3767e-19 8.1513e-19 4.8661e-19 1.0687e-21 1.0465e-20 2.3722e-20 3.6929e-20 5.0311e-20 4.1922e-20 3.9153e-20 4.5825e-20 3.0908e-21 5.9646e-22 6.4356e-22 9.1806e-19 
3.9811e+05 4.2067e-18 1.8149e-18 1.9575e-18 1.4520e-18 7.6683e-19 1.6243e-18 1.1964e-18 7.9051e-19 9.1339e-19 8.7112e-19 1.0805e-18 1.3280e-18 9.3108e-19 9.2569e-19 8.9981e-19 5.2927e-19 1.1079e-21 1.1725e-20 2.7241e-20 4.3598e-20 5.7491e-20 5.1029e-20 4.9822e-20 5.3263e-20 3.2134e-21 6.3410e-22 6.8413e-22 1.0556e-18 
4.4668e+05 4.2939e-18 1.8559e-18 2.1941e-18 1.6919e-18 9.1262e-19 1.9236e-18 1.4474e-18 9.5535e-19 1.0762e-18 1.0091e-18 1.2315e-18 1.5092e-18 1.0206e-18 1.0085e-18 9.7798e-19 5.6818e-19 1.1483e-21 1.3359e-20 3.1495e-20 5.1048e-20 6.5736e-20 6.1408e-20 6.1697e-20 6.0691e-20 3.3401e-21 6.7418e-22 7.2733e-22 1.1943e-18 
5.0119e+05 4.3629e-18 1.8978e-18 2.4400e-18 1.9525e-18 1.0747e-18 2.2427e-18 1.7183e-18 1.1327e-18 1.2442e-18 1.1493e-18 1.3831e-18 1.6900e-18 1.1048e-18 1.0844e-18 1.0484e-18 6.0293e-19 1.1903e-21 1.5378e-20 3.6458e-20 5.9119e-20 7.4783e-20 7.2810e-20 7.4548e-20 6.7918e-20 3.4710e-21 7.1686e-22 7.7333e-22 1.3358e-18 
5.6234e+05 4.4139e-18 1.9407e-18 2.6928e-18 2.2320e-18 1.2521e-18 2.5765e-18 2.0091e-18 1.3193e-18 1.4128e-18 1.2865e-18 1.5328e-18 1.8656e-18 1.1831e-18 1.1531e-18 1.1104e-18 6.3337e-19 1.2342e-21 1.7768e-20 4.2045e-20 6.7602e-20 8.4482e-20 8.4900e-20 8.8000e-20 7.4772e-20 3.6062e-21 7.6232e-22 8.2231e-22 1.4809e-18 
6.3096e+05 4.4470e-18 1.9844e-18 2.9501e-18 2.5276e-18 1.4436e-18 2.9199e-18 2.3101e-18 1.5129e-18 1.5794e-18 1.4190e-18 1.6779e-18 2.0329e-18 1.2553e-18 1.2143e-18 1.1646e-18 6.5954e-19 1.2822e-21 2.0485e-20 4.8123e-20 7.6292e-20 9.4535e-20 9.7366e-20 1.0164e-19 8.1112e-20 3.7459e-21 8.1073e-22 8.7448e-22 1.6255e-18 
7.0795e+05 4.4624e-18 2.0288e-18 3.2091e-18 2.8364e-18 1.6475e-18 3.2680e-18 2.6161e-18 1.7121e-18 1.7417e-18 1.5461e-18 1.8182e-18 2.1901e-18 1.3216e-18 1.2676e-18 1.2102e-18 6.8163e-19 1.3412e-21 2.3519e-20 5.4529e-20 8.4941e-20 1.0471e-19 1.0995e-19 1.1511e-19 8.6827e-20 3.8902e-21 8.6230e-22 9.3005e-22 1.7641e-18 
7.9433e+05 4.4602e-18 2.0738e-18 3.4670e-18 3.1551e-18 1.8620e-18 3.6157e-18 2.9222e-18 1.9144e-18 1.8983e-18 1.6674e-18 1.9527e-18 2.3395e-18 1.3837e-18 1.3137e-18 1.2470e-18 7.0124e-19 1.4312e-21 2.6850e-20 6.1071e-20 9.3495e-20 1.1478e-19 1.2240e-19 1.2806e-19 9.1839e-20 4.0392e-21 9.1724e-22 9.8924e-22 1.8907e-18 
8.9125e+05 4.4409e-18 2.1192e-18 3.7212e-18 3.4802e-18 2.0849e-18 3.9586e-18 3.2238e-18 2.1178e-18 2.0588e-18 1.7829e-18 2.0784e-18 2.4776e-18 1.4393e-18 1.3522e-18 1.2754e-18 7.1993e-19 1.6002e-21 3.0253e-20 6.7576e-20 1.0166e-19 1.2442e-19 1.3413e-19 1.4019e-19 9.6101e-20 4.1930e-21 9.7577e-22 1.0523e-21 2.0100e-18 
1.0000e+06 4.4047e-18 2.1645e-18 3.9689e-18 3.8079e-18 2.3139e-18 4.2927e-18 3.5182e-18 2.3193e-18 2.2162e-18 1.8908e-18 2.1950e-18 2.6028e-18 1.4887e-18 1.3854e-18 1.2963e-18 7.3593e-19 1.9470e-21 3.3709e-20 7.3880e-20 1.0932e-19 1.3361e-19 1.4493e-19 1.5129e-19 9.9593e-20 4.3519e-21 1.0381e-21 1.1195e-21 2.1231e-18 
1.1220e+06 4.3521e-18 2.2096e-18 4.2077e-18 4.1344e-18 2.5467e-18 4.6143e-18 3.8065e-18 2.5159e-18 2.3684e-18 1.9842e-18 2.3025e-18 2.7160e-18 1.5347e-18 1.4139e-18 1.3106e-18 7.4962e-19 2.6466e-21 3.7242e-20 7.9862e-20 1.1637e-19 1.4210e-19 1.5467e-19 1.6120e-19 1.0232e-19 4.5158e-21 1.1046e-21 1.1911e-21 2.2331e-18 
1.2589e+06 4.2835e-18 2.2540e-18 4.4352e-18 4.4556e-18 2.7810e-18 4.9204e-18 4.0807e-18 2.7086e-18 2.5153e-18 2.0719e-18 2.4018e-18 2.8182e-18 1.5781e-18 1.4387e-18 1.3197e-18 7.6135e-19 4.4407e-21 4.0924e-20 8.5622e-20 1.2257e-19 1.4977e-19 1.6327e-19 1.6978e-19 1.0430e-19 4.6851e-21 1.1754e-21 1.2674e-21 2.3238e-18 
1.4125e+06 4.1998e-18 2.2973e-18 4.6495e-18 4.7679e-18 3.0142e-18 5.2084e-18 4.3384e-18 2.8967e-18 2.6571e-18 2.1548e-18 2.4935e-18 2.9099e-18 1.6204e-18 1.4613e-18 1.3242e-18 7.7148e-19 7.4486e-21 4.4964e-20 9.1259e-20 1.2835e-19 1.5653e-19 1.7088e-19 1.7693e-19 1.0559e-19 4.8599e-21 1.2509e-21 1.3487e-21 2.3164e-18 
1.5849e+06 4.1018e-18 2.3390e-18 4.8488e-18 5.0676e-18 3.2440e-18 5.4763e-18 4.5775e-18 3.0788e-18 2.7939e-18 2.2340e-18 2.5795e-18 2.9937e-18 1.6613e-18 1.4821e-18 1.3259e-18 7.8036e-19 1.2424e-20 4.9476e-20 9.6877e-20 1.3359e-19 1.6235e-19 1.7751e-19 1.8278e-19 1.0624e-19 5.0402e-21 1.3314e-21 1.4353e-21 2.1117e-18 
1.7783e+06 3.9907e-18 2.3786e-18 5.0318e-18 5.3511e-18 3.4682e-18 5.7223e-18 4.7967e-18 3.2543e-18 2.9252e-18 2.3099e-18 2.6574e-18 3.0689e-18 1.6997e-18 1.5004e-18 1.3275e-18 7.8832e-19 2.0256e-20 5.4919e-20 1.0285e-19 1.3880e-19 1.6733e-19 1.8319e-19 1.8743e-19 1.0679e-19 5.2264e-21 1.4171e-21 1.5277e-21 1.6989e-18 
1.9953e+06 3.8676e-18 2.4156e-18 5.1973e-18 5.6153e-18 3.6845e-18 5.9453e-18 4.9948e-18 3.4217e-18 3.0512e-18 2.3812e-18 2.7276e-18 3.1346e-18 1.7356e-18 1.5176e-18 1.3281e-18 7.9571e-19 3.1744e-20 6.1720e-20 1.0961e-19 1.4434e-19 1.7153e-19 1.8796e-19 1.9108e-19 1.0718e-19 5.4185e-21 1.5086e-21 1.6262e-21 1.2193e-18 
2.2387e+06 3.7343e-18 2.4493e-18 5.3448e-18 5.8575e-18 3.8910e-18 6.1443e-18 5.1711e-18 3.5806e-18 3.1721e-18 2.4367e-18 2.7905e-18 3.1924e-18 1.7717e-18 1.5355e-18 1.3280e-18 8.0293e-19 4.7721e-20 7.0314e-20 1.1764e-19 1.5046e-19 1.7524e-19 1.9236e-19 1.9395e-19 1.0730e-19 5.6168e-21 1.6061e-21 1.7311e-21 8.4553e-19 
2.5119e+06 3.5924e-18 2.4792e-18 5.4739e-18 6.0752e-18 4.0858e-18 6.3188e-18 5.3260e-18 3.7268e-18 3.2878e-18 2.4894e-18 2.8463e-18 3.2432e-18 1.8077e-18 1.5541e-18 1.3280e-18 8.1020e-19 6.8768e-20 8.1142e-20 1.2755e-19 1.5782e-19 1.7869e-19 1.9663e-19 1.9631e-19 1.0730e-19 5.8214e-21 1.7100e-21 1.8431e-21 6.1382e-19 
2.8184e+06 3.4439e-18 2.5047e-18 5.5845e-18 6.2665e-18 4.2673e-18 6.4686e-18 5.4616e-18 3.8607e-18 3.3981e-18 2.5389e-18 2.8954e-18 3.2872e-18 1.8435e-18 1.5731e-18 1.3285e-18 8.1778e-19 9.5319e-20 9.4391e-20 1.4004e-19 1.6716e-19 1.8212e-19 2.0100e-19 1.9855e-19 1.0735e-19 6.0326e-21 1.8209e-21 1.9624e-21 4.8102e-19 
3.1623e+06 3.2908e-18 2.5253e-18 5.6769e-18 6.4301e-18 4.4341e-18 6.5937e-18 5.5750e-18 3.9848e-18 3.5030e-18 2.5850e-18 2.9378e-18 3.3246e-18 1.8789e-18 1.5924e-18 1.3300e-18 8.2588e-19 1.2752e-19 1.1008e-19 1.5579e-19 1.7895e-19 1.8586e-19 2.0577e-19 2.0092e-19 1.0762e-19 6.2506e-21 1.9391e-21 2.0897e-21 4.0694e-19 
3.5481e+06 3.1353e-18 2.5405e-18 5.7514e-18 6.5650e-18 4.5851e-18 6.6945e-18 5.6665e-18 4.0991e-18 3.6022e-18 2.6271e-18 2.9736e-18 3.3559e-18 1.9131e-18 1.6118e-18 1.3330e-18 8.3492e-19 1.6511e-19 1.2880e-19 1.7553e-19 1.9365e-19 1.9002e-19 2.1064e-19 2.0358e-19 1.0827e-19 6.4755e-21 2.0652e-21 2.2254e-21 3.6796e-19 
3.9811e+06 2.9792e-18 2.5498e-18 5.8089e-18 6.6709e-18 4.7195e-18 6.7714e-18 5.7366e-18 4.2010e-18 3.6958e-18 2.6649e-18 3.0036e-18 3.3819e-18 1.9457e-18 1.6312e-18 1.3369e-18 8.4803e-19 2.0828e-19 1.5103e-19 1.9930e-19 2.1155e-19 1.9507e-19 2.1602e-19 2.0687e-19 1.0941e-19 6.7078e-21 2.1996e-21 2.3702e-21 3.5191e-19 
4.4668e+06 2.8245e-18 2.5530e-18 5.8501e-18 6.7479e-18 4.8368e-18 6.8253e-18 5.7861e-18 4.2899e-18 3.7643e-18 2.6979e-18 3.0278e-18 3.4015e-18 1.9761e-18 1.6501e-18 1.3411e-18 8.6368e-19 2.5629e-19 1.7666e-19 2.2726e-19 2.3306e-19 2.0122e-19 2.2249e-19 2.1097e-19 1.1116e-19 6.9475e-21 2.3430e-21 2.5245e-21 3.5036e-19 
5.0119e+06 2.6730e-18 2.5497e-18 5.8760e-18 6.7966e-18 4.9366e-18 6.8573e-18 5.8161e-18 4.3657e-18 3.8226e-18 2.7258e-18 3.0451e-18 3.4150e-18 2.0036e-18 1.6677e-18 1.3456e-18 8.8006e-19 3.0847e-19 2.0530e-19 2.5941e-19 2.5794e-19 2.0861e-19 2.3023e-19 2.1596e-19 1.1357e-19 7.1951e-21 2.4959e-21 2.6891e-21 3.5775e-19 
5.6234e+06 2.5261e-18 2.5398e-18 5.8877e-18 6.8179e-18 5.0191e-18 6.8683e-18 5.8284e-18 4.4281e-18 3.8742e-18 2.7510e-18 3.0554e-18 3.4223e-18 2.0280e-18 1.6841e-18 1.3501e-18 8.9718e-19 3.6396e-19 2.3690e-19 2.9604e-19 2.8628e-19 2.1747e-19 2.3933e-19 2.2193e-19 1.1663e-19 7.4509e-21 2.6590e-21 2.8647e-21 3.7060e-19 
6.3096e+06 2.3851e-18 2.5233e-18 5.8862e-18 6.8133e-18 5.0844e-18 6.8597e-18 5.8231e-18 4.4769e-18 3.9193e-18 2.7744e-18 3.0591e-18 3.4230e-18 2.0491e-18 1.6986e-18 1.3542e-18 9.1523e-19 4.2195e-19 2.7177e-19 3.3662e-19 3.1815e-19 2.2787e-19 2.4981e-19 2.2899e-19 1.2032e-19 7.7156e-21 2.8332e-21 3.0519e-21 3.8693e-19 
7.0795e+06 2.2508e-18 2.5001e-18 5.8726e-18 6.7843e-18 5.1330e-18 6.8330e-18 5.8014e-18 4.5124e-18 3.9582e-18 2.7914e-18 3.0562e-18 3.4173e-18 2.0663e-18 1.7105e-18 1.3578e-18 9.3414e-19 4.8173e-19 3.0948e-19 3.8087e-19 3.5315e-19 2.4000e-19 2.6156e-19 2.3682e-19 1.2461e-19 7.9906e-21 3.0196e-21 3.2516e-21 4.0535e-19 
7.9433e+06 2.1240e-18 2.4706e-18 5.8481e-18 6.7328e-18 5.1656e-18 6.7895e-18 5.7646e-18 4.5346e-18 3.9915e-18 2.8021e-18 3.0468e-18 3.4053e-18 2.0792e-18 1.7199e-18 1.3603e-18 9.5374e-19 5.4268e-19 3.4917e-19 4.2830e-19 3.9103e-19 2.5367e-19 2.7442e-19 2.4540e-19 1.2936e-19 8.2789e-21 3.2201e-21 3.4646e-21 4.2321e-19 
8.9125e+06 2.0049e-18 2.4348e-18 5.8139e-18 6.6608e-18 5.1830e-18 6.7309e-18 5.7141e-18 4.5439e-18 3.9947e-18 2.8060e-18 3.0312e-18 3.3873e-18 2.0878e-18 1.7263e-18 1.3616e-18 9.7401e-19 6.0368e-19 3.9053e-19 4.7807e-19 4.3127e-19 2.6882e-19 2.8860e-19 2.5455e-19 1.3473e-19 8.5865e-21 3.4385e-21 3.6917e-21 4.3429e-19 
1.0000e+07 1.8939e-18 2.3933e-18 5.7708e-18 6.5704e-18 5.1863e-18 6.6586e-18 5.6512e-18 4.5410e-18 3.9874e-18 2.8035e-18 3.0099e-18 3.3634e-18 2.0918e-18 1.7295e-18 1.3612e-18 9.9448e-19 6.6402e-19 4.3301e-19 5.2964e-19 4.7306e-19 2.8552e-19 3.0381e-19 2.6420e-19 1.4075e-19 8.9247e-21 3.6812e-21 3.9338e-21 4.2859e-19 
1.1220e+07 1.7907e-18 2.3465e-18 5.7200e-18 6.4638e-18 5.1764e-18 6.5741e-18 5.5777e-18 4.5263e-18 3.9753e-18 2.7946e-18 2.9833e-18 3.3339e-18 2.0913e-18 1.7298e-18 1.3592e-18 1.0149e-18 7.2265e-19 4.7626e-19 5.8223e-19 5.1603e-19 3.0329e-19 3.1970e-19 2.7413e-19 1.4685e-19 9.3116e-21 3.9594e-21 4.1920e-21 3.9674e-19 
1.2589e+07 1.6952e-18 2.2949e-18 5.6624e-18 6.3430e-18 5.1544e-18 6.4790e-18 5.4945e-18 4.5005e-18 3.9592e-18 2.7798e-18 2.9515e-18 3.2992e-18 2.0863e-18 1.7269e-18 1.3552e-18 1.0352e-18 7.7908e-19 5.1991e-19 6.3504e-19 5.5943e-19 3.2198e-19 3.3594e-19 2.8409e-19 1.5298e-19 9.7744e-21 4.2900e-21 4.4673e-21 3.3857e-19 
1.4125e+07 1.6071e-18 2.2390e-18 5.5989e-18 6.2102e-18 5.1215e-18 6.3746e-18 5.4029e-18 4.4640e-18 3.9396e-18 2.7593e-18 2.9151e-18 3.2596e-18 2.0772e-18 1.7208e-18 1.3512e-18 1.0549e-18 8.3274e-19 5.6288e-19 6.8722e-19 6.0272e-19 3.4142e-19 3.5210e-19 2.9407e-19 1.5930e-19 1.0349e-20 4.6966e-21 4.7606e-21 2.6833e-19 
1.5849e+07 1.5259e-18 2.1795e-18 5.5304e-18 6.0674e-18 5.0788e-18 6.2624e-18 5.3042e-18 4.4174e-18 3.9175e-18 2.7337e-18 2.8744e-18 3.2158e-18 2.0639e-18 1.7113e-18 1.3464e-18 1.0740e-18 8.8338e-19 6.0485e-19 7.3806e-19 6.4528e-19 3.6126e-19 3.6771e-19 3.0466e-19 1.6549e-19 1.1077e-20 5.2089e-21 5.0732e-21 2.0470e-19 
1.7783e+07 1.4512e-18 2.1169e-18 5.4575e-18 5.9162e-18 5.0275e-18 6.1436e-18 5.1995e-18 4.3620e-18 3.8394e-18 2.7033e-18 2.8300e-18 3.1678e-18 2.0467e-18 1.6988e-18 1.3392e-18 1.0921e-18 9.3032e-19 6.4503e-19 7.8712e-19 6.8684e-19 3.8111e-19 3.8307e-19 3.1512e-19 1.7162e-19 1.2008e-20 5.8632e-21 5.4063e-21 1.5639e-19 
1.9953e+07 1.3824e-18 2.0519e-18 5.3810e-18 5.7586e-18 4.9686e-18 6.0194e-18 5.0899e-18 4.2993e-18 3.7464e-18 2.6687e-18 2.7822e-18 3.1162e-18 2.0260e-18 1.6833e-18 1.3297e-18 1.1094e-18 9.7378e-19 6.8295e-19 8.3381e-19 7.2665e-19 4.0064e-19 3.9798e-19 3.2498e-19 1.7759e-19 1.3188e-20 6.6964e-21 5.7610e-21 1.2251e-19 
2.2387e+07 1.3191e-18 1.9850e-18 5.3015e-18 5.5961e-18 4.9032e-18 5.8909e-18 4.9764e-18 4.2294e-18 3.6519e-18 2.6303e-18 2.7316e-18 3.0613e-18 2.0020e-18 1.6651e-18 1.3180e-18 1.1253e-18 1.0132e-18 7.1849e-19 8.7760e-19 7.6417e-19 4.1957e-19 4.1214e-19 3.3410e-19 1.8565e-19 1.4661e-20 7.7446e-21 6.1386e-21 9.9846e-20 
2.5119e+07 1.2608e-18 1.9167e-18 5.2196e-18 5.4301e-18 4.8322e-18 5.7591e-18 4.8600e-18 4.1535e-18 3.5562e-18 2.5885e-18 2.6787e-18 3.0035e-18 1.9750e-18 1.6445e-18 1.3043e-18 1.1396e-18 1.0481e-18 7.5124e-19 9.1810e-19 7.9921e-19 4.3766e-19 4.2521e-19 3.4236e-19 1.9227e-19 1.6462e-20 9.0394e-21 6.5405e-21 8.4086e-20 
2.8184e+07 1.2069e-18 1.8477e-18 5.1357e-18 5.2619e-18 4.7565e-18 5.6250e-18 4.7415e-18 4.0723e-18 3.4601e-18 2.5439e-18 2.6237e-18 2.9433e-18 1.9454e-18 1.6216e-18 1.2887e-18 1.1520e-18 1.0786e-18 7.8136e-19 9.5499e-19 8.3130e-19 4.5463e-19 4.3707e-19 3.4972e-19 1.9899e-19 1.8615e-20 1.0605e-20 6.9680e-21 7.3229e-20 
3.1623e+07 1.1570e-18 1.7784e-18 5.0504e-18 5.0927e-18 4.6770e-18 5.4892e-18 4.6216e-18 3.9865e-18 3.3639e-18 2.4969e-18 2.5672e-18 2.8812e-18 1.9135e-18 1.5968e-18 1.2715e-18 1.1624e-18 1.1049e-18 8.0872e-19 9.8787e-19 8.6023e-19 4.7036e-19 4.4755e-19 3.5664e-19 2.0569e-19 2.1131e-20 1.2455e-20 7.4226e-21 6.5684e-20 
3.5481e+07 1.1108e-18 1.7092e-18 4.9641e-18 4.9233e-18 4.5944e-18 5.3525e-18 4.5010e-18 3.8971e-18 3.2680e-18 2.4479e-18 2.5094e-18 2.8174e-18 1.8795e-18 1.5702e-18 1.2528e-18 1.1706e-18 1.1268e-18 8.3262e-19 1.0166e-18 8.8586e-19 4.8465e-19 4.5702e-19 3.6316e-19 2.1223e-19 2.4009e-20 1.4595e-20 7.9056e-21 6.0383e-20 
3.9811e+07 1.0677e-18 1.6406e-18 4.8770e-18 4.7548e-18 4.5093e-18 5.2156e-18 4.3803e-18 3.8048e-18 3.1727e-18 2.3972e-18 2.4508e-18 2.7525e-18 1.8438e-18 1.5422e-18 1.2328e-18 1.1766e-18 1.1444e-18 8.5305e-19 1.0413e-18 9.0807e-19 4.9744e-19 4.6504e-19 3.6862e-19 2.1895e-19 2.7236e-20 1.7016e-20 8.4186e-21 5.6671e-20 
4.4668e+07 1.0276e-18 1.5727e-18 4.7896e-18 4.5878e-18 4.4225e-18 5.0790e-18 4.2600e-18 3.7101e-18 3.0785e-18 2.3454e-18 2.3918e-18 2.6867e-18 1.8067e-18 1.5131e-18 1.2117e-18 1.1806e-18 1.1577e-18 8.7003e-19 1.0618e-18 9.2686e-19 5.0855e-19 4.7140e-19 3.7292e-19 2.2553e-19 3.0787e-20 1.9705e-20 8.9628e-21 5.4033e-20 
5.0119e+07 9.9007e-19 1.5060e-18 4.7020e-18 4.4230e-18 4.3344e-18 4.9433e-18 4.1405e-18 3.6137e-18 2.9856e-18 2.2926e-18 2.3325e-18 2.6203e-18 1.7691e-18 1.4836e-18 1.1897e-18 1.1824e-18 1.1670e-18 8.8365e-19 1.0783e-18 9.4226e-19 5.1793e-19 4.7614e-19 3.7609e-19 2.3169e-19 3.4628e-20 2.2637e-20 9.5397e-21 5.2114e-20 
5.6234e+07 9.5483e-19 1.4407e-18 4.6146e-18 4.2609e-18 4.2456e-18 4.8087e-18 4.0221e-18 3.5163e-18 2.8942e-18 2.2447e-18 2.2730e-18 2.5538e-18 1.7309e-18 1.4533e-18 1.1670e-18 1.1819e-18 1.1727e-18 8.9404e-19 1.0912e-18 9.5435e-19 5.2574e-19 4.7928e-19 3.7815e-19 2.3736e-19 3.8718e-20 2.5783e-20 1.0151e-20 5.0670e-20 
6.3096e+07 9.2167e-19 1.3770e-18 4.5275e-18 4.1020e-18 4.1564e-18 4.6757e-18 3.9053e-18 3.4182e-18 2.8045e-18 2.2059e-18 2.2137e-18 2.4875e-18 1.6920e-18 1.4223e-18 1.1437e-18 1.1795e-18 1.1749e-18 9.0140e-19 1.1003e-18 9.6325e-19 5.3190e-19 4.8089e-19 3.7915e-19 2.4249e-19 4.3009e-20 2.9109e-20 1.0800e-20 4.9511e-20 
7.0795e+07 8.9036e-19 1.3150e-18 4.4410e-18 3.9465e-18 4.0672e-18 4.5445e-18 3.7902e-18 3.3200e-18 2.7167e-18 2.1654e-18 2.1548e-18 2.4214e-18 1.6524e-18 1.3910e-18 1.1201e-18 1.1755e-18 1.1741e-18 9.0612e-19 1.1060e-18 9.6912e-19 5.3638e-19 4.8105e-19 3.7964e-19 2.4700e-19 4.7451e-20 3.2577e-20 1.1488e-20 4.8482e-20 
7.9433e+07 8.6073e-19 1.2549e-18 4.3551e-18 3.7947e-18 3.9783e-18 4.4155e-18 3.6772e-18 3.2220e-18 2.6310e-18 2.1236e-18 2.0963e-18 2.3557e-18 1.6126e-18 1.3594e-18 1.0962e-18 1.1694e-18 1.1704e-18 9.0816e-19 1.1084e-18 9.7249e-19 5.3925e-19 4.7984e-19 3.7928e-19 2.5082e-19 5.1990e-20 3.6150e-20 1.2217e-20 4.7465e-20 
8.9125e+07 8.3261e-19 1.1967e-18 4.2700e-18 3.6470e-18 3.8901e-18 4.2887e-18 3.5664e-18 3.1246e-18 2.5473e-18 2.0807e-18 2.0386e-18 2.2905e-18 1.5727e-18 1.3276e-18 1.0722e-18 1.1613e-18 1.1643e-18 9.0772e-19 1.1076e-18 9.7321e-19 5.4059e-19 4.7752e-19 3.7799e-19 2.5398e-19 5.6573e-20 3.9333e-20 1.2988e-20 4.6191e-20 
1.0000e+08 8.0585e-19 1.1405e-18 4.1859e-18 3.5034e-18 3.8026e-18 4.1645e-18 3.4579e-18 3.0281e-18 2.4658e-18 2.0370e-18 1.9816e-18 2.2262e-18 1.5327e-18 1.2958e-18 1.0482e-18 1.1515e-18 1.1561e-18 9.0502e-19 1.1040e-18 9.7144e-19 5.4051e-19 4.7439e-19 3.7584e-19 2.5672e-19 6.1151e-20 4.2431e-20 1.3804e-20 4.4759e-20 
1.1220e+08 7.8034e-19 1.0864e-18 4.1028e-18 3.3640e-18 3.7162e-18 4.0428e-18 3.3517e-18 2.9327e-18 2.3866e-18 1.9928e-18 1.9255e-18 2.1627e-18 1.4928e-18 1.2640e-18 1.0244e-18 1.1400e-18 1.1459e-18 9.0029e-19 1.0979e-18 9.6737e-19 5.3912e-19 4.7017e-19 3.7293e-19 2.5882e-19 6.5673e-20 4.5756e-20 1.4666e-20 4.3348e-20 
1.2589e+08 7.5597e-19 1.0344e-18 4.0208e-18 3.2290e-18 3.6309e-18 3.9239e-18 3.2480e-18 2.8387e-18 2.3097e-18 1.9482e-18 1.8703e-18 2.1002e-18 1.4532e-18 1.2323e-18 1.0007e-18 1.1270e-18 1.1343e-18 8.9374e-19 1.0894e-18 9.6124e-19 5.3653e-19 4.6499e-19 3.6934e-19 2.6044e-19 7.0094e-20 4.8702e-20 1.5576e-20 4.1769e-20 
1.4125e+08 7.3263e-19 9.8443e-19 3.9400e-18 3.0983e-18 3.5470e-18 3.8077e-18 3.1470e-18 2.7463e-18 2.2351e-18 1.9034e-18 1.8163e-18 2.0387e-18 1.4139e-18 1.2010e-18 9.7726e-19 1.1128e-18 1.1212e-18 8.8563e-19 1.0789e-18 9.5324e-19 5.3285e-19 4.5896e-19 3.6516e-19 2.6169e-19 7.4376e-20 5.1527e-20 1.6536e-20 4.0228e-20 
1.5849e+08 7.1025e-19 9.3655e-19 3.8604e-18 2.9720e-18 3.4645e-18 3.6944e-18 3.0486e-18 2.6556e-18 2.1628e-18 1.8586e-18 1.7634e-18 1.9785e-18 1.3751e-18 1.1700e-18 9.5419e-19 1.0974e-18 1.1070e-18 8.7629e-19 1.0665e-18 9.4358e-19 5.2822e-19 4.5218e-19 3.6047e-19 2.6248e-19 7.8481e-20 5.4217e-20 1.7546e-20 3.8799e-20 
1.7783e+08 6.8876e-19 8.9069e-19 3.7820e-18 2.8500e-18 3.3834e-18 3.5839e-18 2.9529e-18 2.5667e-18 2.0928e-18 1.8140e-18 1.7116e-18 1.9195e-18 1.3368e-18 1.1394e-18 9.3151e-19 1.0811e-18 1.0922e-18 8.6658e-19 1.0525e-18 9.3246e-19 5.2274e-19 4.4477e-19 3.5548e-19 2.6284e-19 8.2387e-20 5.6758e-20 1.8606e-20 3.7541e-20 
1.9953e+08 6.6809e-19 8.4684e-19 3.7050e-18 2.7323e-18 3.3040e-18 3.4764e-18 2.8598e-18 2.4798e-18 2.0251e-18 1.7697e-18 1.6611e-18 1.8619e-18 1.2991e-18 1.1092e-18 9.0928e-19 1.0640e-18 1.0763e-18 8.5579e-19 1.0372e-18 9.2019e-19 5.1653e-19 4.3682e-19 3.5085e-19 2.6262e-19 8.6077e-20 5.9152e-20 1.9717e-20 3.6495e-20 
2.2387e+08 6.4818e-19 8.0494e-19 3.6293e-18 2.6189e-18 3.2261e-18 3.3717e-18 2.7695e-18 2.3950e-18 1.9597e-18 1.7257e-18 1.6118e-18 1.8055e-18 1.2621e-18 1.0796e-18 8.8753e-19 1.0463e-18 1.0597e-18 8.4399e-19 1.0206e-18 9.0682e-19 5.0968e-19 4.2843e-19 3.4585e-19 2.6188e-19 8.9540e-20 6.1400e-20 2.0886e-20 3.5687e-20 
2.5119e+08 6.2899e-19 7.6494e-19 3.5549e-18 2.5096e-18 3.1499e-18 3.2699e-18 2.6817e-18 2.3122e-18 1.8965e-18 1.6822e-18 1.5638e-18 1.7505e-18 1.2258e-18 1.0506e-18 8.6629e-19 1.0280e-18 1.0425e-18 8.3135e-19 1.0031e-18 8.9251e-19 5.0232e-19 4.1969e-19 3.4056e-19 2.6064e-19 9.2767e-20 6.3505e-20 2.2118e-20 3.5130e-20 
2.8184e+08 6.1047e-19 7.2679e-19 3.4819e-18 2.4044e-18 3.0754e-18 3.1709e-18 2.5966e-18 2.2316e-18 1.8354e-18 1.6392e-18 1.5171e-18 1.6970e-18 1.1903e-18 1.0222e-18 8.4560e-19 1.0094e-18 1.0249e-18 8.1802e-19 9.8483e-19 8.7742e-19 4.9451e-19 4.1069e-19 3.3503e-19 2.5893e-19 9.5767e-20 6.5471e-20 2.3415e-20 3.4821e-20 
3.1623e+08 5.9258e-19 6.9042e-19 3.4102e-18 2.3032e-18 3.0026e-18 3.0748e-18 2.5141e-18 2.1531e-18 1.7765e-18 1.5968e-18 1.4716e-18 1.6448e-18 1.1555e-18 9.9440e-19 8.2546e-19 9.9050e-19 1.0068e-18 8.0412e-19 9.6589e-19 8.6168e-19 4.8636e-19 4.0173e-19 3.2933e-19 2.5681e-19 9.8549e-20 6.7316e-20 2.4782e-20 3.4759e-20 
